{
	"data": [{
		"name": "Store",
		"Values": ["BSR Complex Bglr",
			"Mantri Mall Blore",
			"Urban Oasis Mall",
			"Brookefield Coimbato",
			"Thillainagar Tiruch",
			"Ambi Mall Gurgaon",
			"Tapadia Mall",
			"Begumpet Hyderabad",
			"KPHB Colony",
			"Mehdipatnam Hyderbad",
			"Sarurnagar Village",
			"Centrum Hyderabad",
			"BenzCircle Vijaywada",
			"CMR Central Vizag",
			"RP Mall Calicut",
			"O Mall Kochi",
			"Chrompet Chennai",
			"RK Salai",
			"Bandra Mumbai",
			"Korum Mall Thane",
			"Star City Guwahati",
			"Janpath",
			"Dolamundi Sq Cuttack",
			"Ambattur Chennai",
			"Adyar",
			"Avani Riverside Kolk",
			"Diamond City North",
			"Vishaal Mall Madurai",
			"Citycntr Mall Nasik",
			"Empress City Nagpur",
			"Thiruvanmiyur Chenna",
			"Viva Mall Thane Mumb",
			"Market City Pune",
			"T Nagar North Usman",
			"Brough Road Erode",
			"Phoenix Chen",
			"Attapur Hyderabad",
			"Meyyanur  Salem",
			"Gopalans Bangalore",
			"Bheemavaram",
			"Central Plaza Eluru",
			"Lakshmipuram Guntur",
			"Bochupeta Vizianagar",
			"Hanmakonda Warangal",
			"Iscon Mega Mall Ahme",
			"U-Mall",
			"Kubde Heights",
			"PALLIKARANAI",
			"Nehru Road Kolkatta",
			"K MALL",
			"RTL Karur Store",
			"Sri Srinivas Twr Hyd",
			"Raurkela Orissa",
			"Gandhi Bazar Bangal",
			"Trends Ongole",
			"Cuddapah AP",
			"Kachiguda  Hyderabad",
			"Axis Mall Kolkata",
			"Elante Mall  Chand",
			"Kondayyappalem Nello",
			"Pinnacle Mall Delhi",
			"Ambition Saphire Bi",
			"UB Tower Muzaffarpur",
			"Alpha One Ahmedabad",
			"Bombay Twr Jamshedpu",
			"Bokaro Mall Bokaro",
			"Asian Mall Gulbarga",
			"City Mall Mumbai",
			"Zolo Westend Mall A",
			"Alpha One Amritsar",
			"Lajpat Ngr Jalandhar",
			"Arcot Road Chennai",
			"Jakotia Complex Wara",
			"MahagunMall Ghziabad",
			"RTL Kapoor Dehradun",
			"Barasat Jn Mall Kol",
			"Prozone Mall Auranga",
			"Kukatpally Telangan",
			"Aims Mall Vadodara",
			"Sandhya Tower Ranch",
			"Jayanagar Bangalore",
			"Kowdiar Trivandrum",
			"City Centre Raipur",
			"Gulmohur Plaza Vira",
			"Kessel Mall Kurukesh",
			"Sambalpur Orissa",
			"City Center Mall Hy",
			"DHANBAD Store",
			"Alcot Gardens Rajahm",
			"Payyannur Mall",
			"Puthetu Arcade Pala",
			"Khammam AP",
			"Bijapur Padmavathi",
			"TIRUVALLUR",
			"Nalgonda Telangana",
			"Champapet Hyderabad",
			"Kanchipuram",
			"Gar-Ali   Jorhat As",
			"Db City Bhopal",
			"Tolichowki Hyderabad",
			"ARSS Mall  Delhi",
			"Moradabad UP",
			"Hoogly WB",
			"Alpha Lotus Avadi C",
			"Felicity Mall Nellor",
			"Gachibowli Hyderaba",
			"Mythri Nagar Hydrab",
			"KOMPALLI HYD",
			"Reliance - TIRUPATI",
			"Nagarbhavi Bangalor",
			"Nucleus Mall Belgaum",
			"Trillium Mall Amrit",
			"Tirupathi Tower Hal",
			"Abid Plaza Rae Bare",
			"Manapakkam Chennai",
			"RTL SFC Mall Sangli",
			"V3S Mall NCR",
			"Ansal Plaza Gurgoan",
			"C21 Mall Indore",
			"Old Rana Hall  Erod",
			"Palayamkottai Tirun",
			"Arundelpet Guntur",
			"Grand Mall Thrissur",
			"Navyugs Kamla Patna",
			"Virtuous Retail Mal",
			"Phoneix Mall Blore",
			"OpulentMall Ghziabad",
			"Infinity Mall Mumbai",
			"Himalaya Arcade",
			"Forum Mall Kukatpally",
			"Jobis Mall",
			"Rama Magneto",
			"Cine Mall, Ajmer",
			"Celebration Mall",
			"Sector 8 Rohini",
			"Janakpuri Delhi",
			"Malleswaram Bangalor",
			"City Center Siliguri",
			"Marbaniang  Shillong",
			"G S Road Guwahati",
			"Forum Mall Mangalor",
			"Seasons Mall  Hadap",
			"Jubilee Hills Hyd",
			"Vettiyil Endow Kotay",
			"Deen Dayal City Mal",
			"Pentagon Mall Haridw",
			"Imperial Trade Kochi",
			"Cine Mall Vadodara",
			"CityCentre Mangalore",
			"SDM Mysore",
			"Crystal Mall Jamnaga",
			"Aashima Mall Bhopal",
			"ManUpasana Jaipur"
		]
	}, {
		"name": "Product",
		"Values": ["Tees",
			"Shorts",
			"Tracks",
			"Sweat Shirts",
			"Sweater",
			"Polo",
			"Jacket",
			"Track Suit",
			"Shirts"
		]
	}],
	"groupedData":["Collection","product","Gender"],
	"productData":["Collection","Store","Gender"]

}