{
	"data": [{
		"columnName": "Week",
		"rows": [{
			"rowName": "Sales rs lacs",
			"rowData": [{
				"rowName": "Ty",
				"rowValue": 14445
			}, {
				"rowName": "LY",
				"rowValue": 2365
			}]
		}, {
			"rowName": "TGT",
			"rowValue": 236541
		}, {
			"rowName": "Trend",
			"rowValue": 21453
		}]
	}, {
		"columnName": "Season to Date",
		"rows": [{
			"rowName": "Sales rs lacs",
			"rowData": [{
				"rowName": "Ty",
				"rowValue": 2583
			}, {
				"rowName": "LY",
				"rowValue": 1123
			}]
		}, {
			"rowName": "TGT",
			"rowValue": 2541
		}, {
			"rowName": "Trend",
			"rowValue": 1652
		}]
	}, {
		"columnName": "Year to Date",
		"rows": [{
			"rowName": "Sales rs lacs",
			"rowData": [{
				"rowName": "Ty",
				"rowValue": 145
			}, {
				"rowName": "LY",
				"rowValue": 236
			}]
		}, {
			"rowName": "TGT",
			"rowValue": 124
		}, {
			"rowName": "Trend",
			"rowValue": 213
		}]
	}]
}